<?xml version="1.0" encoding="UTF-8"?>
<svg width="32px" height="32px" viewBox="0 0 32 32" version="1.1" xmlns="http://www.w3.org/2000/svg" xmlns:xlink="http://www.w3.org/1999/xlink">
    <title>Group 7</title>
    <g id="Desk" stroke="none" stroke-width="1" fill="none" fill-rule="evenodd">
        <g id="ZONFI_Index_3" transform="translate(-1604.000000, -2205.000000)" fill="#FFCAA6">
            <g id="Group-7" transform="translate(1604.300321, 2205.300174)">
                <polygon id="Fill-1" transform="translate(23.667005, 7.732500) rotate(-315.000000) translate(-23.667005, -7.732500) " points="22.6670049 16.465 24.6670049 16.465 24.6670049 -1 22.6670049 -1"></polygon>
                <polygon id="Fill-2" transform="translate(7.732000, 23.667505) rotate(-315.000000) translate(-7.732000, -23.667505) " points="6.732 32.3995049 8.732 32.3995049 8.732 14.9355049 6.732 14.9355049"></polygon>
                <polygon id="Fill-3" transform="translate(23.667005, 23.667151) rotate(-315.000000) translate(-23.667005, -23.667151) " points="14.9345049 24.6671513 32.3995049 24.6671513 32.3995049 22.6671513 14.9345049 22.6671513"></polygon>
                <polygon id="Fill-4" transform="translate(7.732000, 7.732146) rotate(-315.000000) translate(-7.732000, -7.732146) " points="-1 8.73214645 16.464 8.73214645 16.464 6.73214645 -1 6.73214645"></polygon>
            </g>
        </g>
    </g>
</svg>