<?xml version="1.0" encoding="UTF-8"?>
<svg width="54px" height="54px" viewBox="0 0 54 54" version="1.1" xmlns="http://www.w3.org/2000/svg" xmlns:xlink="http://www.w3.org/1999/xlink">
    <title>Back</title>
    <g id="Symbols" stroke="none" stroke-width="1" fill="none" fill-rule="evenodd">
        <g id="ZONFI/Footer/Desk" transform="translate(-590.000000, -350.000000)">
            <g id="Back" transform="translate(590.000000, 350.000000)">
                <rect id="Rectangle-Copy" fill="#FFCAA6" x="0" y="0" width="54" height="54" rx="27"></rect>
                <g id="Group-5" transform="translate(16.000000, 16.000000)" fill="#000000">
                    <polygon id="Fill-1" points="1.148 2 18.613 2 18.613 0 1.148 0"></polygon>
                    <polygon id="Fill-2" points="20.987 22.033 22.987 22.033 22.987 4.568 20.987 4.568"></polygon>
                    <polygon id="Fill-3" points="-5.12301312e-12 21.7101 1.414 23.1241 20.414 4.1241 19 2.7101"></polygon>
                </g>
            </g>
        </g>
    </g>
</svg>