<?xml version="1.0" encoding="UTF-8"?>
<svg width="54px" height="54px" viewBox="0 0 54 54" version="1.1" xmlns="http://www.w3.org/2000/svg" xmlns:xlink="http://www.w3.org/1999/xlink">
    <title>Group 9</title>
    <g id="Desk" stroke="none" stroke-width="1" fill="none" fill-rule="evenodd">
        <g id="ZONFI_Index_2" transform="translate(-414.000000, -6960.000000)">
            <g id="Group-9" transform="translate(414.000000, 6960.000000)">
                <rect id="Rectangle-Copy" fill="#FFCAA6" x="0" y="0" width="54" height="54" rx="27"></rect>
                <g id="Group-10" transform="translate(11.000000, 11.000000)" fill="#303030">
                    <polygon id="Fill-1" transform="translate(23.402792, 7.549467) rotate(-315.000000) translate(-23.402792, -7.549467) " points="14.6702919 8.54946741 32.1352919 8.54946741 32.1352919 6.54946741 14.6702919 6.54946741"></polygon>
                    <polygon id="Fill-2" transform="translate(23.265613, 24.807823) rotate(-315.000000) translate(-23.265613, -24.807823) " points="22.2656131 33.5403226 24.2656131 33.5403226 24.2656131 16.0753226 22.2656131 16.0753226"></polygon>
                    <polygon id="Fill-3" transform="translate(15.207000, 16.207000) rotate(-315.000000) translate(-15.207000, -16.207000) " points="5 25 6.414 26.414 25.414 7.414 24 6"></polygon>
                </g>
            </g>
        </g>
    </g>
</svg>